The relationship between social network size and frontal alpha asymmetry to strangers during infancy: The moderation of temperament
…
library(dplyr)
snq <- snq %>%
  select(-2)

Count Occurrences for Each Participant

#Now I can calculate social network size for each participant. I need R to count the number of occurrences for each participant. The number produced for each participant is their social network size that I will use for my data analysis.

participant_counts <- snq %>%
  group_by(V1) %>%
  tally()

print(participant_counts)

# A tibble: 119 × 2
   V1                n
   <chr>         <int>
 1 16890            16
 2 HARRISONTYLER    21
 3 NB_01            13
 4 NB_02            14
 5 NB_03             8
 6 NB_05            22
 7 NB_06            24
 8 NB_07             5
 9 NB_09            14
10 NB_10            12
# ℹ 109 more rows
…
